…
(summarize_N_from_C (vancouver_trees, cultivar_name , diameter ))
#> # A tibble: 588 x 4
#> # Groups:   cultivar_name [294]
#>    cultivar_name  mean range    sd
#>    <chr>         <dbl> <dbl> <dbl>
#>  1 ACCOLADE      20.8    3   8.52 
#>  2 ACCOLADE      20.8   42   8.52 
#>  3 AKEBONO        7.76   0   7.93 
#>  4 AKEBONO        7.76  66   7.93 
#>  5 ALIA           5.33   5   0.289
#>  6 ALIA           5.33   5.5 0.289
#>  7 ALLGOLD        3.81   2   1.79 
#>  8 ALLGOLD        3.81  11.5 1.79 
#>  9 ALMIRA        17.4    5   8.28 
#> 10 ALMIRA        17.4   29   8.28 
#> # ... with 578 more rows
```
…
